{
    "page": 1,
    "per_page": 2,
    "photos": [
        {
            "id": 2325447,
            "width": 5184,
            "height": 3456,
            "url": "https://www.pexels.com/photo/hot-air-balloon-2325447/",
            "photographer": "Francesco Ungaro",
            "photographer_url": "https://www.pexels.com/@francesco-ungaro",
            "photographer_id": 21273,
            "avg_color": "#85928B",
            "src": {
                "original": "https://images.pexels.com/photos/2325447/pexels-photo-2325447.jpeg",
                "large2x": "https://images.pexels.com/photos/2325447/pexels-photo-2325447.jpeg?auto=compress&cs=tinysrgb&dpr=2&h=650&w=940",
                "large": "https://images.pexels.com/photos/2325447/pexels-photo-2325447.jpeg?auto=compress&cs=tinysrgb&h=650&w=940",
                "medium": "https://images.pexels.com/photos/2325447/pexels-photo-2325447.jpeg?auto=compress&cs=tinysrgb&h=350",
                "small": "https://images.pexels.com/photos/2325447/pexels-photo-2325447.jpeg?auto=compress&cs=tinysrgb&h=130",
                "portrait": "https://images.pexels.com/photos/2325447/pexels-photo-2325447.jpeg?auto=compress&cs=tinysrgb&fit=crop&h=1200&w=800",
                "landscape": "https://images.pexels.com/photos/2325447/pexels-photo-2325447.jpeg?auto=compress&cs=tinysrgb&fit=crop&h=627&w=1200",
                "tiny": "https://images.pexels.com/photos/2325447/pexels-photo-2325447.jpeg?auto=compress&cs=tinysrgb&dpr=1&fit=crop&h=200&w=280"
            },
            "liked": false,
            "alt": "Hot air balloons float over the mesmerizing landscape of Cappadocia, Turkey at sunrise."
        },
        {
            "id": 886521,
            "width": 4110,
            "height": 2642,
            "url": "https://www.pexels.com/photo/person-s-left-hand-holding-green-leaf-plant-886521/",
            "photographer": "Alena Koval",
            "photographer_url": "https://www.pexels.com/@alena-koval-233944",
            "photographer_id": 233944,
            "avg_color": "#DFE0D9",
            "src": {
                "original": "https://images.pexels.com/photos/886521/pexels-photo-886521.jpeg",
                "large2x": "https://images.pexels.com/photos/886521/pexels-photo-886521.jpeg?auto=compress&cs=tinysrgb&dpr=2&h=650&w=940",
                "large": "https://images.pexels.com/photos/886521/pexels-photo-886521.jpeg?auto=compress&cs=tinysrgb&h=650&w=940",
                "medium": "https://images.pexels.com/photos/886521/pexels-photo-886521.jpeg?auto=compress&cs=tinysrgb&h=350",
                "small": "https://images.pexels.com/photos/886521/pexels-photo-886521.jpeg?auto=compress&cs=tinysrgb&h=130",
                "portrait": "https://images.pexels.com/photos/886521/pexels-photo-886521.jpeg?auto=compress&cs=tinysrgb&fit=crop&h=1200&w=800",
                "landscape": "https://images.pexels.com/photos/886521/pexels-photo-886521.jpeg?auto=compress&cs=tinysrgb&fit=crop&h=627&w=1200",
                "tiny": "https://images.pexels.com/photos/886521/pexels-photo-886521.jpeg?auto=compress&cs=tinysrgb&dpr=1&fit=crop&h=200&w=280"
            },
            "liked": false,
            "alt": "A hand painted green holds a fresh plant sprout against a light background, symbolizing growth and sustainability."
        }
    ],
    "total_results": 8000,
    "next_page": "https://api.pexels.com/v1/search?page=2&per_page=2&query=nature"
}
